[
  // *********************************************************************************
  { "type" : "Service",
    "name" : "QDU" },

  // *********************************************************************************
  { "name"     : "Update Session",
    "type"     : "Command",
    "since"    : "1.26",
    "set"      : [ { "name"             : "SessionAction",
                     "format"           : "guint32",
                     "public-format"    : "MbimQduSessionAction" },
                   { "name"             : "SessionType",
                     "format"           : "guint32",
                     "public-format"    : "MbimQduSessionType" } ],
    "query"    : [],
    "response" : [ { "name"             : "CurrentSessionType",
                     "format"           : "guint32",
                     "public-format"    : "MbimQduSessionType" },
                   { "name"             : "CurrentSessionStatus",
                     "format"           : "guint32",
                     "public-format"    : "MbimQduSessionStatus" },
                   { "name"             : "LastSessionType",
                     "format"           : "guint32",
                     "public-format"    : "MbimQduSessionType" },
                   { "name"             : "LastSessionResult",
                     "format"           : "guint32",
                     "public-format"    : "MbimQduSessionResult" },
                   { "name"             : "LastSessionErrorOffset",
                     "format"           : "guint32" },
                   { "name"             : "LastSessionErrorSize",
                     "format"           : "guint32" } ] },

  // *********************************************************************************
  { "name"     : "File Open",
    "type"     : "Command",
    "since"    : "1.26",
    "set"      : [ { "name"             : "FileType",
                     "format"           : "guint32",
                     "public-format"    : "MbimQduFileType" },
                   { "name"             : "FileSize",
                     "format"           : "guint32" } ],
    "query"    : [],
    "response" : [ { "name"             : "MaxTransferSize",
                     "format"           : "guint32" },
                   { "name"             : "MaxWindowSize",
                     "format"           : "guint32" } ] },

  // *********************************************************************************
  { "name"     : "File Write",
    "type"     : "Command",
    "since"    : "1.26",
    "set"      : [ { "name"   : "DataBuffer",
                     "format" : "unsized-byte-array" } ],
    "response" : []}
]
